<svg width="69" height="43" viewBox="0 0 69 43" fill="none" xmlns="http://www.w3.org/2000/svg">
<path d="M21.4838 40.4472C24.32 41.7236 24.8185 41.6923 24.643 42.9999C23.6063 42.9999 22.746 42.6809 21.9571 42.5213C21.4721 42.3556 20.9549 42.3549 20.3794 42.5213C19.9061 42.6809 19.2045 42.9999 18.6439 42.9999H17.0662C16.5342 42.9999 16.3708 42.7607 15.804 42.5213C15.1729 42.0427 13.911 42.8058 12.8063 42.9999C12.5345 41.8627 12.9559 41.5229 15.3344 40.2877C16.922 39.7276 17.5527 38.5022 18.1743 34.7035C18.2272 32.9128 18.8054 30.7149 19.5943 30.5553C20.5409 30.2362 20.5189 29.1289 20.6987 27.3644C21.3689 25.4676 22.7497 23.5353 22.7497 23.0566C21.5946 19.7706 20.4436 19.3056 18.1743 19.068H6.34137C0.661598 19.2275 -5.17609 13.4838 11.2323 7.74014C-5.33386 18.4298 8.39238 14.7167 8.70793 14.6006C24.0119 10.612 23.6964 9.3356 24.4852 7.58059C24.9694 6.53846 26.694 5.02785 29.534 5.18739C32.2672 4.97735 33.4776 4.55947 35.056 3.27283C36.4279 2.35758 38.3255 2.32265 41.8403 2.31555C43.5132 2.35405 45.3075 2.4751 46.5697 2.63465L44.0453 3.43238L42.7869 3.91104C41.2169 4.83295 40.3493 5.49169 38.8426 7.10197L40.2625 4.70877C39.1467 5.50391 38.5557 6.02186 37.5804 7.10197L38.8426 4.38968C37.7926 5.22783 37.2442 5.87567 36.3182 7.26152L37.2648 4.70877C37.4226 4.23013 36.9493 3.93011 36.476 4.23013C34.3401 5.58402 33.2047 5.9003 31.2695 5.8256C27.9466 5.80847 25.9711 5.7369 27.4829 8.37834C28.9164 11.469 29.351 12.8455 28.9029 14.122C26.2207 10.7715 23.223 9.65472 22.2764 12.6861C21.6289 11.6429 21.0866 11.7718 20.0676 12.2075C17.5177 13.1593 16.0259 13.8386 13.2833 15.2389L13.7567 14.122C13.0026 14.674 12.5694 15.0263 11.7056 16.0366L12.3367 14.6006C11.5327 15.1122 11.0461 15.5407 10.1279 16.5152L10.9167 15.0793C10.0471 15.5988 9.52703 15.9871 8.55015 16.8343L9.97011 15.0793C4.2179 16.2944 2.76104 16.2951 2.08146 15.5579C1.76592 18.1107 11.873 19.2344 17.5432 15.0793L17.0699 16.5152C17.9786 15.8729 18.4181 15.4439 19.1209 14.6007L18.4898 16.3557C19.2875 15.664 19.7124 15.2062 20.3831 14.122L19.9098 16.1961C20.7083 15.472 21.0937 14.9575 21.6453 13.8029C21.4815 18.0119 21.3298 20.0252 24.8008 23.3757C22.4342 23.0566 21.3298 28.9599 21.9609 29.279C28.7451 31.5126 30.3872 22.3669 23.0653 18.4298C25.7495 18.5195 26.5316 18.9364 27.9562 19.3871C27.4829 18.7489 26.1727 18.1532 24.643 17.313C26.4181 17.3485 27.4277 17.3611 28.7451 17.6321C28.0135 16.941 27.3831 16.6664 26.2207 16.1961C29.7826 16.925 31.585 17.3927 32.3739 16.1961C32.6894 15.7175 34.8392 14.9632 36.9493 14.9198C36.7753 15.6906 36.7131 16.1307 36.9493 16.9939C37.5804 18.7489 39.4278 20.1214 37.5804 20.5039C37.1071 20.5837 36.148 21.8403 36.3182 22.0994C38.3692 22.8971 41.4643 20.9825 38.3692 15.877C40.4203 14.6007 41.2054 8.85696 43.4142 9.49515C44.3609 9.76866 44.7217 10.0365 44.1891 11.7288C45.0275 12.5661 46.1975 13.5465 48.1474 15.0793C48.3153 17.8597 48.0683 17.1582 46.7312 18.4298C47.2045 22.4184 43.7335 23.2162 43.2602 21.1421C43.8913 21.1421 44.3963 20.7948 45.3113 20.5039C45.5168 19.8837 45.5568 19.4887 45.3113 18.5893C44.2778 18.8889 43.6895 19.1037 42.6291 19.5466C41.0514 19.8657 40.4795 20.252 41.8403 21.3016C43.418 22.4184 40.2625 29.1194 34.1094 28.6407C37.1071 30.5553 39.0004 32.1508 36.9493 37.4158C36.9723 36.9718 36.8394 36.5096 36.476 35.5013C36.0027 37.7349 36.1208 38.0123 35.6871 37.8945C35.147 35.3849 33.4783 31.0339 32.5317 31.5126L32.0583 31.8317C30.1651 28.6407 29.7442 26.9009 31.7428 26.2475C34.5827 25.4498 35.2138 23.3757 33.6361 23.3757C32.3739 25.4498 30.4684 25.0691 29.534 24.6521C27.7871 29.4032 26.3056 31.6909 21.6453 34.2249C21.6584 36.3613 21.4977 38.0867 21.4838 40.4472Z" fill="black"/>
<path d="M50.0414 3.43238C52.0924 4.5492 54.459 8.21877 54.6168 10.2929L53.3546 11.0906C53.8279 8.21877 51.3926 4.47491 47.6748 2.95374L50.0414 3.43238Z" fill="black" stroke="black" stroke-width="0.3175" stroke-linecap="round" stroke-linejoin="round"/>
<path d="M50.199 3.59209C49.1941 3.36894 46.8546 2.67821 46.0969 2.7943C40.8904 3.59203 41.5215 8.85707 44.2036 10.1334L44.5192 10.6121C44.0115 11.6214 44.2987 12.2124 46.0969 13.3244C46.637 14.2494 47.0872 14.7711 48.6213 15.7176C49.0946 16.0367 49.973 16.2155 50.3568 16.6749C53.7315 20.3792 55.7879 21.8524 59.1921 23.5354" stroke="black" stroke-width="0.3175" stroke-linecap="round" stroke-linejoin="round"/>
<path d="M44.5187 10.6121C38.0872 8.10052 44.4157 -0.0285771 47.9897 3.75165C44.2026 4.97299 43.9709 7.36064 44.5187 10.6121Z" fill="black" stroke="black" stroke-width="0.3175" stroke-linecap="round" stroke-linejoin="round"/>
<path d="M60.9269 21.4611L59.1914 23.535L60.138 23.3755L63.9246 21.7801L65.3445 20.1848L62.6624 21.6206L61.4002 21.3015L60.9269 21.4611Z" fill="black" stroke="black" stroke-width="0.3175" stroke-linecap="round" stroke-linejoin="round"/>
<path d="M53.6692 13.1648L53.0381 13.4839L56.0358 16.8344M57.1402 18.1107L58.5601 19.7062M59.6645 20.9826L59.9801 21.4612L60.6112 20.823L61.2423 20.6635L62.3467 20.9826L64.7133 19.7062H65.1866M65.1866 19.7062L64.24 19.5467L64.0822 18.7489H63.2933L61.7156 17.1535V16.3557H60.9267L57.929 13.1648L56.9824 12.8457M65.1866 19.7062L65.3444 20.1848" stroke="black" stroke-width="0.3175" stroke-linecap="round" stroke-linejoin="round"/>
<path d="M65.5028 5.98524L64.7139 3.59204L67.3961 4.38977L68.5005 6.78297L67.8694 7.74025L67.5538 8.21889L66.8653 8.04504L66.6072 8.69753L64.8717 8.21889L63.9251 8.53799L63.7673 9.33572L62.5051 8.85708L61.7162 9.17617L61.5585 10.1335L60.4541 9.49527L58.0875 10.6121C57.0657 12.1738 56.6675 12.3671 57.2986 13.1648L58.7185 14.7603L61.5585 17.9512L59.9807 18.1108L60.1385 16.5153H59.5074L58.7185 15.558V14.7603L57.9297 14.9199L55.5631 12.048H55.0898L54.6164 13.0053L59.0341 18.2703L58.0875 18.5894L57.2986 17.6321L57.4564 16.8344H56.6675L53.6698 13.3244C52.9199 12.4898 52.9283 11.9536 53.3543 10.9312C54.6377 9.27954 56.9831 8.21889 57.7719 9.01663L58.403 9.81436H59.0341L59.1919 8.85708L59.9807 8.37844L60.454 9.01663L61.2429 9.17617L61.5585 7.8998L62.6629 7.26161L63.6095 8.21889L64.0828 8.37844L64.3984 7.42116V7.10207L65.0295 6.78297L66.9227 7.8998L67.432 8.02854L67.7116 7.42116L67.0805 7.26161L65.5028 5.98524Z" fill="black"/>
<path d="M67.8694 7.74025L68.5005 6.78297L67.3961 4.38977L64.7139 3.59204L65.5028 5.98524L67.0805 7.26161L67.7116 7.42116M67.8694 7.74025L67.5538 8.05935M67.8694 7.74025L67.5538 8.21889M67.8694 7.74025L67.7116 7.42116M67.5538 8.05935V8.21889M67.5538 8.05935L67.432 8.02854M66.9227 7.8998L65.0295 6.78297L64.3984 7.10207V7.42116L64.0828 8.37844L63.6095 8.21889L62.6629 7.26161L61.5585 7.8998L61.2429 9.17617L60.454 9.01663L59.9807 8.37844L59.1919 8.85708L59.0341 9.81436H58.403L57.7719 9.01663C56.9831 8.21889 54.6377 9.27954 53.3543 10.9312C52.9283 11.9536 52.9199 12.4898 53.6698 13.3244L56.6675 16.8344H57.4564L57.2986 17.6321L58.0875 18.5894L59.0341 18.2703L54.6164 13.0053L55.0898 12.048H55.5631L57.9297 14.9199L58.7185 14.7603V15.558L59.5074 16.5153H60.1385L59.9807 18.1108L61.5585 17.9512L57.2986 13.1648C56.6675 12.3671 57.0657 12.1738 58.0875 10.6121L60.4541 9.49527L61.5585 10.1335L61.7162 9.17617L62.5051 8.85708L63.7673 9.33572L63.9251 8.53799L64.8717 8.21889L66.6072 8.69753L66.8653 8.04504M66.9227 7.8998L66.8653 8.04504M66.9227 7.8998L67.432 8.02854M67.5538 8.21889L66.8653 8.04504M67.7116 7.42116L67.432 8.02854" stroke="black" stroke-width="0.3175" stroke-linecap="round" stroke-linejoin="round"/>
<path d="M53.1963 13.4839L53.5118 13.1648L54.774 13.0052L59.0339 18.2703L59.9805 18.5894L61.4005 20.3444L62.0316 20.1848L62.3471 19.068L61.6623 18.3236L60.2961 18.5894L59.665 18.3236L61.4005 17.7916L62.6627 19.3871L63.4515 20.0253L64.2404 19.5467L64.5559 19.7062L62.8204 20.6635H61.4005H60.7694L59.9805 21.3017L59.665 20.9826L59.9805 19.5467L58.5606 19.7062L57.1406 17.9512L57.2984 16.8344H56.0362L53.1963 13.4839Z" fill="black"/>
<path d="M61.5583 18.1107L61.6623 18.3236M61.6623 18.3236L60.2961 18.5894L59.665 18.3236L61.4005 17.7916L62.6627 19.3871L63.4515 20.0253L64.2404 19.5467L64.5559 19.7062L62.8204 20.6635H61.4005H60.7694L59.9805 21.3017L59.665 20.9826L59.9805 19.5467L58.5606 19.7062L57.1406 17.9512L57.2984 16.8344H56.0362L53.1963 13.4839L53.5118 13.1648L54.774 13.0052L59.0339 18.2703L59.9805 18.5894L61.4005 20.3444L62.0316 20.1848L62.3471 19.068L61.6623 18.3236Z" stroke="black" stroke-width="0.3175"/>
<path d="M50.1985 2.47461C50.1385 2.61938 50.0848 2.74055 50.0281 2.84011C50.0098 3.05522 50.149 3.2509 50.3563 3.51544L48.1475 3.03684C49.443 3.29884 49.7677 3.29725 50.0281 2.84011C50.0377 2.72777 50.0902 2.61013 50.1985 2.47461Z" fill="black"/>
<path d="M65.0292 3.75088C64.4469 3.37668 61.9437 2.45992 59.0338 1.44149C57.4561 1.12244 51.3029 0.241147 50.1985 2.47461M50.1985 2.47461C49.8631 3.28405 49.7252 3.3559 48.1475 3.03684L50.3563 3.51544C50.0407 3.11275 49.883 2.8696 50.1985 2.47461Z" stroke="black" stroke-width="0.3175" stroke-linecap="round" stroke-linejoin="round"/>
<path d="M61.8732 2.47458C55.3129 0.579268 48.9072 2.2804 51.6889 4.79145L51.7758 4.86757C51.7459 4.84212 51.7169 4.81674 51.6889 4.79145L49.4092 2.79364C52.2491 0.24106 58.1363 0.969119 61.8732 2.47458Z" fill="black" stroke="black" stroke-width="0.3175"/>
<path d="M64.0826 2.63417L67.3958 4.38904L58.5605 1.35791L64.0826 2.63417Z" fill="black" stroke="black" stroke-width="0.3175"/>
<path d="M58.5605 8.53787L58.0871 7.42114L57.4561 7.74021C58.0719 7.64862 58.2967 7.86028 58.5605 8.53787Z" stroke="black" stroke-width="0.3175" stroke-linecap="round" stroke-linejoin="round"/>
<path d="M57.1017 17.9616L56.3237 18.8874L55.8138 18.3943C56.3754 18.6655 56.652 18.5303 57.1017 17.9616Z" stroke="black" stroke-width="0.3175" stroke-linecap="round" stroke-linejoin="round"/>
<path d="M59.9477 20.5234L59.1619 21.4425L58.6562 20.945C59.2156 21.221 59.4933 21.0882 59.9477 20.5234Z" stroke="black" stroke-width="0.3175" stroke-linecap="round" stroke-linejoin="round"/>
<path d="M60.9267 7.5806L60.4534 6.46387L59.8223 6.78293C60.4381 6.69134 60.6629 6.903 60.9267 7.5806Z" stroke="black" stroke-width="0.3175" stroke-linecap="round" stroke-linejoin="round"/>
<path d="M63.7675 6.62332L63.2942 5.50659L62.6631 5.82566C63.2789 5.73407 63.5037 5.94573 63.7675 6.62332Z" stroke="black" stroke-width="0.3175" stroke-linecap="round" stroke-linejoin="round"/>
<path d="M46.7338 2.81065C48.0831 2.93005 49.334 2.65008 51.3025 1.51794C50.5143 2.27084 50.0434 2.68339 49.7248 3.59187C49.1429 3.03567 48.2279 2.95926 46.7338 2.81065C46.6791 2.80581 46.6243 2.80032 46.5693 2.79421C46.6249 2.7998 46.6797 2.80527 46.7338 2.81065Z" fill="black"/>
<path d="M51.3025 1.51794C49.2543 2.69592 47.983 2.95133 46.5693 2.79421C48.1613 2.95436 49.1218 3.01555 49.7248 3.59187C50.0434 2.68339 50.5143 2.27084 51.3025 1.51794Z" stroke="black" stroke-width="0.3175" stroke-linecap="round" stroke-linejoin="round"/>
<path d="M44.5186 6.14446C44.5378 6.06647 44.5683 5.986 44.6091 5.90408L45.7807 2.79425C47.5032 2.48421 50.5212 4.43245 50.6717 4.8682C48.3016 3.04518 45.2361 4.6454 44.6091 5.90408L44.5186 6.14446Z" fill="black"/>
<path d="M44.5186 6.14446L44.3644 6.10636L44.6671 6.20043L44.5186 6.14446ZM50.6717 4.8682L50.5749 4.99403L50.9946 5.31686L50.8217 4.81637L50.6717 4.8682ZM45.7807 2.79425L45.7526 2.63801L45.6639 2.65397L45.6322 2.73828L45.7807 2.79425ZM44.6727 6.18256C44.6887 6.11756 44.7148 6.04804 44.7512 5.97486L44.467 5.8333C44.4219 5.92396 44.3869 6.01539 44.3644 6.10636L44.6727 6.18256ZM44.7512 5.97486C44.8927 5.69074 45.1807 5.3729 45.5807 5.08347C45.9786 4.79553 46.4781 4.54263 47.0308 4.38302C48.1354 4.06402 49.4389 4.12027 50.5749 4.99403L50.7685 4.74237C49.5344 3.79311 48.1201 3.73796 46.9427 4.07799C46.3544 4.24789 45.8218 4.5171 45.3945 4.82624C44.9694 5.13389 44.639 5.48807 44.467 5.8333L44.7512 5.97486ZM50.8217 4.81637C50.8034 4.76335 50.7694 4.71329 50.7344 4.66995C50.6976 4.6244 50.6512 4.57589 50.5978 4.52564C50.4908 4.42503 50.348 4.30999 50.1792 4.18802C49.841 3.94375 49.3887 3.66485 48.8877 3.41005C48.3868 3.15534 47.8333 2.92267 47.2928 2.77322C46.7546 2.62441 46.2166 2.5545 45.7526 2.63801L45.8089 2.95049C46.2061 2.87898 46.6913 2.93633 47.2081 3.07924C47.7227 3.2215 48.256 3.44499 48.7437 3.69305C49.2313 3.94102 49.6694 4.21151 49.9933 4.4454C50.1554 4.56251 50.2865 4.66874 50.3802 4.75687C50.4271 4.80099 50.4626 4.83872 50.4874 4.86943C50.4997 4.88469 50.5084 4.89704 50.5143 4.90653C50.5204 4.91637 50.5219 4.92068 50.5216 4.92003L50.8217 4.81637ZM45.6322 2.73828L44.4606 5.84811L44.7577 5.96005L45.9293 2.85022L45.6322 2.73828ZM44.4606 5.84811L44.37 6.08849L44.6671 6.20043L44.7577 5.96005L44.4606 5.84811Z" fill="black"/>
<path d="M46.885 9.49498C43.8814 8.61849 44.9918 11.0903 44.3607 10.6117C42.6124 8.08525 43.583 6.51575 45.7826 4.8869C45.8818 4.77229 46.0348 4.66007 46.2538 4.54937C46.0912 4.66238 45.934 4.77478 45.7826 4.8869C45.31 5.43295 46.0597 6.03331 46.7272 6.78288C46.1194 6.58329 45.1494 6.46378 45.1494 6.94238C45.773 7.20295 46.1563 7.58472 46.7272 8.05916C45.77 7.73747 44.5415 8.01169 45.1495 8.3782C45.9548 8.78468 46.0668 8.89758 46.885 9.49498Z" fill="black"/>
<path d="M44.3607 10.6117L44.2306 10.7019L44.2452 10.7229L44.2655 10.7384L44.3607 10.6117ZM46.885 9.49498L46.8414 9.64766L47.7098 9.90105L46.9778 9.36656L46.885 9.49498ZM45.1495 8.3782L45.0681 8.51479L45.0788 8.52019L45.1495 8.3782ZM46.7272 8.05916L46.6775 8.20993L47.4815 8.48013L46.8279 7.9369L46.7272 8.05916ZM45.1494 6.94238L44.991 6.94156L44.991 7.04811L45.0892 7.08914L45.1494 6.94238ZM46.7272 6.78288L46.6786 6.93399L47.2369 7.11737L46.8451 6.67727L46.7272 6.78288ZM46.2538 4.54937L46.3445 4.68024L48.2178 3.378L46.1819 4.40727L46.2538 4.54937ZM44.2655 10.7384C44.3115 10.7732 44.3614 10.8041 44.4142 10.8204C44.471 10.8379 44.5397 10.8406 44.6048 10.8042C44.6645 10.7708 44.6968 10.7177 44.7149 10.6776C44.7335 10.6365 44.7453 10.5909 44.754 10.5493C44.7699 10.4735 44.785 10.3564 44.8008 10.2659C44.8186 10.1644 44.842 10.0611 44.8805 9.96326C44.9551 9.77395 45.0861 9.60316 45.3593 9.51905C45.6445 9.43129 46.1028 9.43212 46.8414 9.64766L46.9285 9.3423C46.1653 9.11959 45.6361 9.10071 45.265 9.21494C44.882 9.33283 44.6879 9.58574 44.5857 9.84499C44.5359 9.97148 44.508 10.0987 44.4887 10.2093C44.4674 10.3309 44.4595 10.4075 44.4439 10.4824C44.4368 10.5161 44.4306 10.5352 44.4262 10.5449C44.4214 10.5556 44.4257 10.5394 44.4495 10.5261C44.4786 10.5098 44.5036 10.5157 44.5058 10.5164C44.5059 10.5164 44.5017 10.5151 44.4925 10.5099C44.4835 10.5047 44.4714 10.4968 44.4558 10.485L44.2655 10.7384ZM46.9778 9.36656C46.1607 8.76996 46.0388 8.64941 45.2201 8.23621L45.0788 8.52019C45.8709 8.91995 45.9729 9.0252 46.7922 9.6234L46.9778 9.36656ZM45.2306 8.24199C45.1643 8.20208 45.1454 8.17585 45.1426 8.17067C45.1424 8.17027 45.146 8.17711 45.1457 8.18927C45.1455 8.20159 45.1414 8.21 45.1397 8.2128C45.1389 8.21404 45.1503 8.19779 45.198 8.17496C45.2424 8.15369 45.305 8.1331 45.3848 8.11622C45.7082 8.04786 46.226 8.05816 46.6775 8.20993L46.7768 7.9084C46.2712 7.73848 45.6961 7.72504 45.318 7.80499C45.2224 7.82519 45.1341 7.85243 45.0603 7.88778C44.9897 7.92157 44.9155 7.97072 44.8701 8.04418C44.8171 8.13001 44.8151 8.23055 44.8643 8.32146C44.9069 8.40017 44.9826 8.46269 45.0684 8.5144L45.2306 8.24199ZM46.8279 7.9369C46.269 7.47245 45.8615 7.068 45.2097 6.79562L45.0892 7.08914C45.6845 7.3379 46.0436 7.69699 46.6265 8.18142L46.8279 7.9369ZM45.3079 6.9432C45.3079 6.89201 45.3271 6.85876 45.3848 6.82832C45.453 6.79234 45.5641 6.76966 45.7137 6.76732C46.0092 6.76268 46.3854 6.83772 46.6786 6.93399L46.7757 6.63177C46.4611 6.52845 46.0485 6.44394 45.7071 6.4493C45.5382 6.45195 45.3688 6.47666 45.2362 6.54664C45.093 6.62216 44.991 6.75345 44.991 6.94156L45.3079 6.9432ZM46.8451 6.67727C46.6776 6.48911 46.5005 6.3055 46.3477 6.13959C46.1916 5.97008 46.057 5.81505 45.9582 5.66952C45.8586 5.52283 45.8051 5.39947 45.7947 5.29328C45.785 5.19545 45.8103 5.09797 45.9025 4.99153L45.6627 4.78227C45.5185 4.94886 45.4604 5.13119 45.4792 5.32293C45.4973 5.5063 45.5843 5.68227 45.6965 5.84762C45.8095 6.01413 45.958 6.18387 46.1154 6.3548C46.2761 6.52934 46.443 6.70186 46.6092 6.88849L46.8451 6.67727ZM45.9025 4.99153C45.9834 4.89804 46.1169 4.797 46.3257 4.69146L46.1819 4.40727C45.9527 4.52315 45.7802 4.64655 45.6627 4.78227L45.9025 4.99153ZM46.1631 4.41849C45.9994 4.53227 45.8409 4.64559 45.6881 4.75877L45.8771 5.01503C46.0271 4.90398 46.183 4.79249 46.3445 4.68024L46.1631 4.41849ZM45.6881 4.75877C44.584 5.57633 43.756 6.40075 43.4406 7.36227C43.1206 8.33796 43.3396 9.41436 44.2306 10.7019L44.4907 10.5214C43.6334 9.28257 43.4636 8.311 43.7417 7.46312C44.0245 6.60107 44.7815 5.82632 45.8771 5.01503L45.6881 4.75877Z" fill="black"/>
<path d="M50.5145 16.8344C53.5847 20.0964 55.3176 21.4232 59.0343 23.3758L59.6653 22.8971C56.1632 20.7054 52.4984 18.1172 49.4101 14.9198C49.0946 14.7603 47.6091 14.4761 46.8857 14.2816L50.5145 16.8344Z" fill="black" stroke="black" stroke-width="0.3175"/>
</svg>
