<svg width="196" height="122" viewBox="0 0 196 122" fill="none" xmlns="http://www.w3.org/2000/svg">
<path d="M78.4983 58.7273C82.0537 78.7168 76.9264 84.5322 60.3557 89.2727L58.5594 80L65.3853 64.7273L57.4816 50.7273L15.089 51.2727L3.77229 47.2727L3.2334 42L12.7538 44L23.8908 42L39.8779 38.1818L62.6908 31.2727L75.0853 16.3636L93.4075 13.8182L101.491 9.27273H124.304L160.589 2.72727L183.043 7.81818L192.383 19.4545L191.126 22L186.995 21.2727L164.361 28.1818L161.128 33.6364V35.8182L163.643 36.7273L172.265 46H174.78V48.3636L179.091 52.5455L181.606 52.9091L182.145 55.2727L184.659 55.6364V57.2727L167.415 65.2727L138.135 42.3636L115.322 44.3636L112.987 63.6364L98.6168 66.1818L103.108 54.1818L99.6946 48.1818L78.4983 58.7273Z" fill="#FEBB2D" stroke="black"/>
<path d="M59.8654 114.706C67.9568 118.353 69.3791 118.264 68.8784 122C65.9207 122 63.4663 121.088 61.2158 120.632C59.832 120.159 58.3565 120.157 56.7146 120.632C55.3643 121.088 53.3627 122 51.7633 122H47.2622C45.7445 122 45.2783 121.316 43.6612 120.632C41.8608 119.265 38.2607 121.445 35.109 122C34.3338 118.751 35.536 117.78 42.3217 114.251C46.8508 112.65 48.6503 109.149 50.4237 98.2957C50.5745 93.1792 52.2242 86.8994 54.4748 86.4435C57.1755 85.5318 57.1126 82.368 57.6256 77.3265C59.5376 71.907 63.4771 66.386 63.4771 65.0185C60.1815 55.6298 56.8978 54.3011 50.4237 53.6222H16.665C0.461029 54.078 -16.1935 37.6674 30.6186 21.2567C-16.6436 51.7988 22.5165 41.1899 23.4167 40.8583C67.0779 29.462 66.1777 25.8152 68.4283 20.8008C69.8095 17.8233 74.7299 13.5072 82.832 13.9631C90.6297 13.3629 94.0831 12.169 98.586 8.49284C102.5 5.87781 107.914 5.77799 117.941 5.75772C122.714 5.86771 127.833 6.21357 131.434 6.66943L124.232 8.94869L120.642 10.3163C116.163 12.9504 113.688 14.8325 109.389 19.4333L113.44 12.5956C110.256 14.8674 108.57 16.3473 105.788 19.4333L109.389 11.6839C106.393 14.0786 104.829 15.9296 102.187 19.8892L104.888 12.5956C105.338 11.228 103.987 10.3708 102.637 11.228C96.5435 15.0963 93.3045 16 87.7832 15.7865C78.3034 15.7376 72.6673 15.5331 76.9805 23.0802C81.0701 31.9108 82.31 35.8437 81.0315 39.4908C73.3795 29.9179 64.8273 26.727 62.1266 35.3882C60.2794 32.4077 58.7322 32.7759 55.825 34.0206C48.5505 36.74 44.2944 38.6811 36.47 42.6818L37.8204 39.4908C35.6692 41.0679 34.4333 42.0745 31.9689 44.9611L33.7694 40.8583C31.4755 42.3199 30.0873 43.5442 27.4677 46.3286L29.7183 42.2259C27.2374 43.7102 25.7535 44.8198 22.9666 47.2403L27.0176 42.2259C10.6069 45.6978 6.45061 45.6996 4.51181 43.5935C3.61158 50.8871 32.4463 54.0979 48.6232 42.2259L47.2728 46.3286C49.8652 44.4935 51.1192 43.2677 53.1243 40.8584L51.3239 45.8728C53.5996 43.8964 54.8118 42.5884 56.7253 39.4908L55.3749 45.4169C57.6529 43.348 58.7526 41.878 60.3262 38.5791C59.8589 50.6049 59.426 56.3574 69.3285 65.9302C62.5768 65.0185 59.426 81.8851 61.2264 82.7968C80.5814 89.1787 85.2663 63.0479 64.3772 51.7988C72.035 52.055 74.2665 53.2464 78.3308 54.5339C76.9805 52.7105 73.2427 51.0085 68.8784 48.6079C73.9427 48.7095 76.823 48.7454 80.5814 49.5196C78.4942 47.5451 76.6957 46.7606 73.3795 45.4169C83.5412 47.4995 88.6835 48.8358 90.9341 45.4169C91.8343 44.0494 97.9675 41.8942 103.987 41.7701C103.491 43.9725 103.314 45.23 103.987 47.6962C105.788 52.7105 111.058 56.6321 105.788 57.7249C104.438 57.9528 101.701 61.5433 102.187 62.2834C108.038 64.5627 116.868 59.0925 108.038 44.5052C113.89 40.8584 116.13 24.4477 122.432 26.2711C125.132 27.0525 126.162 27.8177 124.642 32.653C127.034 35.0453 130.372 37.8465 135.935 42.2259C136.414 50.1699 135.709 48.1658 131.895 51.7988C133.245 63.1951 123.342 65.4743 121.992 59.5483C123.793 59.5483 125.233 58.5561 127.844 57.7249C128.43 55.953 128.544 54.8244 127.844 52.2546C124.895 53.1105 123.217 53.7244 120.192 54.9897C115.691 55.9015 114.059 57.0052 117.941 60.0041C122.442 63.1951 113.44 82.3409 95.8854 80.9733C104.438 86.4435 109.839 91.0021 103.987 106.045C104.053 104.777 103.674 103.456 102.637 100.575C101.287 106.957 101.624 107.749 100.387 107.413C98.8457 100.242 94.0849 87.8111 91.3842 89.1787L90.0339 90.0904C84.6325 80.9733 83.4318 76.0023 89.1337 74.1355C97.2357 71.8563 99.0362 65.9302 94.5351 65.9302C90.9341 71.8563 85.4979 70.7686 82.832 69.577C77.8484 83.1518 73.6216 89.688 60.3262 96.9281C60.3637 103.032 59.9051 107.962 59.8654 114.706Z" fill="#333333"/>
<path d="M141.336 8.94868C147.187 12.1396 153.939 22.6242 154.389 28.5503L150.788 30.8296C152.139 22.6242 145.191 11.9274 134.584 7.58112L141.336 8.94868Z" fill="#333333" stroke="#333333" stroke-width="2.51186" stroke-linecap="round" stroke-linejoin="round"/>
<path d="M141.787 9.40453C138.92 8.76694 132.245 6.79343 130.084 7.1251C115.23 9.40436 117.03 24.4475 124.682 28.0943L125.583 29.462C124.134 32.3456 124.954 34.0344 130.084 37.2115C131.625 39.8543 132.909 41.3449 137.286 44.0493C138.636 44.961 141.142 45.4717 142.237 46.7844C151.865 57.3681 157.731 61.5774 167.443 66.386" stroke="#333333" stroke-width="2.51186" stroke-linecap="round" stroke-linejoin="round"/>
<path d="M125.582 29.4621C107.233 22.286 125.288 -0.940224 135.485 9.86053C124.68 13.3501 124.019 20.172 125.582 29.4621Z" fill="#333333" stroke="#333333" stroke-width="2.51186" stroke-linecap="round" stroke-linejoin="round"/>
<path d="M172.395 60.4599L167.443 66.386L170.144 65.9302L180.947 61.3717L184.998 56.8131L177.346 60.9158L173.745 60.0041L172.395 60.4599Z" fill="#333333" stroke="#333333" stroke-width="2.51186" stroke-linecap="round" stroke-linejoin="round"/>
<path d="M151.689 36.7556L149.889 37.6674L158.441 47.2402M161.592 50.8871L165.643 55.4456M168.794 59.0924L169.694 60.46L171.494 58.6365L173.295 58.1807L176.446 59.0924L183.197 55.4456H184.548M184.548 55.4456L181.847 54.9897L181.397 52.7105H179.146L174.645 48.1519V45.8727H172.394L163.842 36.7556L161.142 35.8439M184.548 55.4456L184.998 56.8131" stroke="#333333" stroke-width="2.51186" stroke-linecap="round" stroke-linejoin="round"/>
<path d="M185.448 16.2423L183.197 9.40454L190.849 11.6838L194 18.5216L192.199 21.2567L191.299 22.6243L189.335 22.1275L188.598 23.9918L183.647 22.6243L180.946 23.536L180.496 25.8152L176.895 24.4477L174.645 25.3594L174.195 28.0945L171.044 26.2711L164.292 29.462C161.377 33.9242 160.241 34.4764 162.041 36.7557L166.093 41.3142L174.195 50.4312L169.693 50.8871L170.144 46.3286H168.343L166.093 43.5934V41.3142L163.842 41.77L157.09 33.5647H155.74L154.39 36.2998L166.993 51.3429L164.292 52.2546L162.041 49.5195L162.492 47.2403H160.241L151.689 37.2115C149.549 34.8271 149.573 33.2948 150.789 30.3737C154.45 25.6547 161.141 22.6243 163.392 24.9035L165.192 27.1828H166.993L167.443 24.4477L169.693 23.0801L171.044 24.9035L173.294 25.3594L174.195 21.7125L177.345 19.8891L180.046 22.6243L181.396 23.0801L182.297 20.345V19.4333L184.097 18.5216L189.499 21.7125L190.951 22.0804L191.749 20.345L189.949 19.8891L185.448 16.2423Z" fill="#333333"/>
<path d="M192.199 21.2567L194 18.5216L190.849 11.6838L183.197 9.40454L185.448 16.2423L189.949 19.8891L191.749 20.345M192.199 21.2567L191.299 22.1684M192.199 21.2567L191.299 22.6242M192.199 21.2567L191.749 20.345M191.299 22.1684V22.6242M191.299 22.1684L190.951 22.0804M189.499 21.7125L184.097 18.5216L182.297 19.4333V20.345L181.396 23.0801L180.046 22.6242L177.345 19.8891L174.195 21.7125L173.294 25.3594L171.044 24.9035L169.693 23.0801L167.443 24.4477L166.993 27.1828H165.192L163.392 24.9035C161.141 22.6242 154.45 25.6547 150.789 30.3737C149.573 33.2948 149.549 34.8271 151.689 37.2115L160.241 47.2403H162.492L162.041 49.5195L164.292 52.2546L166.993 51.3429L154.39 36.2998L155.74 33.5647H157.09L163.842 41.77L166.093 41.3142V43.5934L168.343 46.3286H170.144L169.693 50.8871L174.195 50.4312L162.041 36.7557C160.241 34.4764 161.377 33.9242 164.292 29.462L171.044 26.2711L174.195 28.0945L174.645 25.3594L176.895 24.4477L180.496 25.8152L180.946 23.536L183.647 22.6242L188.598 23.9918L189.335 22.1275M189.499 21.7125L189.335 22.1275M189.499 21.7125L190.951 22.0804M191.299 22.6242L189.335 22.1275M191.749 20.345L190.951 22.0804" stroke="#333333" stroke-width="2.51186" stroke-linecap="round" stroke-linejoin="round"/>
<path d="M150.339 37.6674L151.239 36.7556L154.84 36.2998L166.993 51.3429L169.694 52.2546L173.745 57.269L175.545 56.8131L176.446 53.6222L174.492 51.4953L170.594 52.2546L168.794 51.4953L173.745 49.9754L177.346 54.5339L179.596 56.3573L181.847 54.9897L182.747 55.4456L177.796 58.1807H173.745H171.944L169.694 60.0041L168.794 59.0924L169.694 54.9897L165.643 55.4456L161.592 50.4312L162.042 47.2402H158.441L150.339 37.6674Z" fill="#333333"/>
<path d="M174.195 50.8871L174.492 51.4953M174.492 51.4953L170.594 52.2546L168.794 51.4953L173.745 49.9754L177.346 54.5339L179.596 56.3573L181.847 54.9897L182.747 55.4456L177.796 58.1807H173.745H171.944L169.694 60.0041L168.794 59.0924L169.694 54.9897L165.643 55.4456L161.592 50.4312L162.042 47.2402H158.441L150.339 37.6674L151.239 36.7556L154.84 36.2998L166.993 51.3429L169.694 52.2546L173.745 57.269L175.545 56.8131L176.446 53.6222L174.492 51.4953Z" stroke="#333333" stroke-width="2.51186"/>
<path d="M141.786 6.21359C141.615 6.62723 141.462 6.97347 141.3 7.25796C141.248 7.87261 141.645 8.43177 142.236 9.18765L135.935 7.82009C139.631 8.56875 140.557 8.5642 141.3 7.25796C141.327 6.93695 141.477 6.6008 141.786 6.21359Z" fill="#333333"/>
<path d="M184.097 9.86041C182.436 8.79117 175.294 6.17161 166.993 3.26152C162.491 2.34987 144.937 -0.168358 141.786 6.21359M141.786 6.21359C140.829 8.52649 140.436 8.7318 135.935 7.82009L142.236 9.18765C141.336 8.037 140.886 7.34222 141.786 6.21359Z" stroke="#333333" stroke-width="2.51186" stroke-linecap="round" stroke-linejoin="round"/>
<path d="M175.095 6.21376C156.379 0.798053 138.104 5.65891 146.04 12.834L146.288 13.0515C146.203 12.9788 146.12 12.9063 146.04 12.834L139.536 7.12545C147.638 -0.168346 164.434 1.91202 175.095 6.21376Z" fill="#333333" stroke="#333333" stroke-width="2.51186"/>
<path d="M181.397 6.66943L190.849 11.6838L165.643 3.02262L181.397 6.66943Z" fill="#333333" stroke="#333333" stroke-width="2.51186"/>
<path d="M165.642 23.536L164.292 20.345L162.491 21.2567C164.248 20.995 164.89 21.5998 165.642 23.536Z" stroke="#333333" stroke-width="2.51186" stroke-linecap="round" stroke-linejoin="round"/>
<path d="M161.48 50.4607L159.26 53.1063L157.806 51.6974C159.408 52.4722 160.197 52.0859 161.48 50.4607Z" stroke="#333333" stroke-width="2.51186" stroke-linecap="round" stroke-linejoin="round"/>
<path d="M169.6 57.7804L167.358 60.4067L165.915 58.9852C167.511 59.7739 168.304 59.3945 169.6 57.7804Z" stroke="#333333" stroke-width="2.51186" stroke-linecap="round" stroke-linejoin="round"/>
<path d="M172.394 20.8008L171.044 17.6099L169.243 18.5216C171 18.2599 171.641 18.8647 172.394 20.8008Z" stroke="#333333" stroke-width="2.51186" stroke-linecap="round" stroke-linejoin="round"/>
<path d="M180.497 18.0657L179.146 14.8748L177.346 15.7865C179.103 15.5248 179.744 16.1296 180.497 18.0657Z" stroke="#333333" stroke-width="2.51186" stroke-linecap="round" stroke-linejoin="round"/>
<path d="M131.904 7.17226C135.753 7.51344 139.322 6.71344 144.938 3.47847C142.689 5.62981 141.346 6.80864 140.437 9.40455C138.777 7.81526 136.166 7.59691 131.904 7.17226C131.748 7.15844 131.592 7.14276 131.435 7.12529C131.593 7.14126 131.75 7.1569 131.904 7.17226Z" fill="#333333"/>
<path d="M144.938 3.47847C139.095 6.84443 135.468 7.57424 131.435 7.12529C135.976 7.5829 138.717 7.75776 140.437 9.40455C141.346 6.80864 142.689 5.62981 144.938 3.47847Z" stroke="#333333" stroke-width="2.51186" stroke-linecap="round" stroke-linejoin="round"/>
<path d="M125.582 16.6982C125.637 16.4754 125.724 16.2454 125.84 16.0114L129.183 7.12528C134.097 6.23935 142.707 11.8063 143.137 13.0514C136.375 7.84229 127.629 12.4148 125.84 16.0114L125.582 16.6982Z" fill="#333333"/>
<path d="M125.582 16.6982L124.363 16.3972L126.758 17.1404L125.582 16.6982ZM143.137 13.0514L142.37 14.0463L145.69 16.6042L144.324 12.6419L143.137 13.0514ZM129.183 7.12528L128.96 5.88927L128.258 6.01577L128.007 6.6831L129.183 7.12528ZM126.801 16.9992C126.831 16.879 126.883 16.7356 126.965 16.5706L124.716 15.4521C124.565 15.7553 124.443 16.0718 124.363 16.3972L126.801 16.9992ZM126.965 16.5706C127.292 15.9131 128.006 15.0968 129.084 14.316C130.145 13.5469 131.486 12.8657 132.973 12.4357C135.939 11.5776 139.378 11.741 142.37 14.0463L143.903 12.0565C140.134 9.15273 135.818 8.99776 132.275 10.0228C130.506 10.5344 128.903 11.345 127.61 12.2821C126.333 13.2073 125.283 14.3113 124.716 15.4521L126.965 16.5706ZM144.324 12.6419C144.227 12.3603 144.062 12.1318 143.941 11.9816C143.806 11.8139 143.645 11.648 143.477 11.4889C143.138 11.1699 142.701 10.8188 142.202 10.458C141.201 9.73375 139.875 8.91548 138.412 8.17008C136.95 7.4254 135.319 6.73729 133.711 6.29201C132.122 5.85183 130.453 5.62014 128.96 5.88927L129.406 8.36128C130.37 8.18744 131.62 8.3194 133.041 8.71276C134.443 9.10103 135.913 9.71637 137.271 10.4083C138.629 11.0996 139.843 11.8511 140.73 12.4932C141.176 12.8155 141.52 13.0967 141.754 13.3169C141.871 13.4275 141.945 13.508 141.985 13.5583C142.04 13.6259 141.993 13.5869 141.949 13.4609L144.324 12.6419ZM128.007 6.6831L124.665 15.5692L127.016 16.4535L130.358 7.56745L128.007 6.6831ZM124.665 15.5692L124.407 16.256L126.758 17.1404L127.016 16.4535L124.665 15.5692Z" fill="#333333"/>
<path d="M132.334 26.2711C123.765 23.7668 126.933 30.8296 125.132 29.462C120.145 22.2432 122.914 17.7585 129.189 13.1041C129.472 12.7766 129.909 12.456 130.534 12.1396C130.07 12.4626 129.621 12.7837 129.189 13.1041C127.841 14.6644 129.98 16.3798 131.884 18.5216C130.15 17.9513 127.383 17.6099 127.383 18.9774C129.162 19.7219 130.255 20.8128 131.884 22.1684C129.153 21.2493 125.648 22.0329 127.383 23.0801C129.68 24.2415 130 24.5641 132.334 26.2711Z" fill="#333333"/>
<path d="M125.132 29.462L124.104 30.1752L124.219 30.3417L124.38 30.464L125.132 29.462ZM132.334 26.2711L131.99 27.4791L138.85 29.484L133.068 25.2554L132.334 26.2711ZM127.383 23.0801L126.741 24.1575L126.782 24.182L126.824 24.2034L127.383 23.0801ZM131.884 22.1684L131.492 23.3613L137.844 25.4993L132.681 21.2016L131.884 22.1684ZM127.383 18.9774L126.129 18.9701L126.129 19.8134L126.906 20.1385L127.383 18.9774ZM131.884 18.5216L131.5 19.7172L135.912 21.1683L132.817 17.6867L131.884 18.5216ZM130.534 12.1396L131.252 13.175L146.06 2.86458L129.964 11.0154L130.534 12.1396ZM124.38 30.464C124.544 30.5886 124.773 30.7402 125.054 30.8267C125.366 30.9229 125.799 30.952 126.223 30.7147C126.604 30.5014 126.788 30.1748 126.873 29.9862C126.962 29.7895 127.01 29.5924 127.039 29.4538C127.085 29.2343 127.146 28.7978 127.177 28.6175C127.224 28.3507 127.28 28.1156 127.361 27.9085C127.505 27.5438 127.719 27.2634 128.221 27.1086C128.817 26.9249 129.945 26.8815 131.99 27.4791L132.678 25.063C130.438 24.4085 128.749 24.3088 127.473 24.7023C126.102 25.1247 125.39 26.055 125.029 26.9721C124.858 27.4058 124.767 27.8294 124.708 28.1687C124.634 28.5944 124.63 28.7114 124.585 28.9226C124.569 28.9994 124.566 28.9869 124.589 28.9353C124.609 28.8918 124.713 28.6709 124.992 28.515C125.313 28.335 125.621 28.3732 125.778 28.4214C125.902 28.4599 125.946 28.5064 125.885 28.4601L124.38 30.464ZM133.068 25.2554C130.743 23.5548 130.344 23.1715 127.941 21.9568L126.824 24.2034C129.017 25.3115 129.257 25.5734 131.6 27.2867L133.068 25.2554ZM128.024 22.0027C127.885 21.9186 127.974 21.9357 128.067 22.1071C128.212 22.3748 128.216 22.7442 128.037 23.0338C127.919 23.2259 127.792 23.2626 127.87 23.2252C127.923 23.2 128.037 23.158 128.224 23.1182C129.009 22.9522 130.34 22.9737 131.492 23.3613L132.276 20.9755C130.697 20.444 128.911 20.3977 127.693 20.6555C127.381 20.7217 127.064 20.8163 126.779 20.953C126.52 21.0773 126.15 21.301 125.904 21.6994C125.598 22.1953 125.591 22.7906 125.865 23.298C126.088 23.7091 126.447 23.9798 126.741 24.1575L128.024 22.0027ZM132.681 21.2016C131.147 19.9252 129.862 18.6545 127.859 17.8163L126.906 20.1385C128.462 20.7894 129.364 21.7004 131.087 23.1352L132.681 21.2016ZM128.636 18.9848C128.636 19.1838 128.482 19.3363 128.431 19.3634C128.431 19.3634 128.432 19.363 128.434 19.3622C128.435 19.3614 128.438 19.3603 128.441 19.3589C128.448 19.356 128.458 19.3521 128.472 19.3477C128.5 19.3386 128.539 19.3281 128.591 19.3182C128.697 19.298 128.836 19.2838 129.01 19.2811C129.737 19.2696 130.718 19.4601 131.5 19.7172L132.268 17.3259C131.316 17.0128 130.047 16.7474 128.956 16.7646C128.426 16.7729 127.795 16.8487 127.253 17.1347C126.629 17.4646 126.129 18.0873 126.129 18.9701L128.636 18.9848ZM132.817 17.6867C132.336 17.1452 131.805 16.5925 131.389 16.1403C130.947 15.6596 130.598 15.2538 130.352 14.8911C130.1 14.5193 130.032 14.2999 130.021 14.1913C130.017 14.1488 130.007 14.0843 130.138 13.9319L128.24 12.2763C127.698 12.9041 127.449 13.6391 127.526 14.424C127.597 15.1428 127.93 15.7787 128.282 16.2985C128.64 16.8274 129.099 17.3496 129.551 17.8416C130.03 18.3622 130.48 18.827 130.951 19.3564L132.817 17.6867ZM130.138 13.9319C130.277 13.7714 130.56 13.5393 131.103 13.2639L129.964 11.0154C129.258 11.3726 128.668 11.7818 128.24 12.2763L130.138 13.9319ZM129.815 11.1042C129.343 11.4331 128.884 11.7616 128.441 12.0904L129.938 14.1178C130.359 13.8059 130.797 13.492 131.252 13.175L129.815 11.1042ZM128.441 12.0904C125.269 14.4425 122.728 16.9236 121.746 19.922C120.727 23.0322 121.476 26.3727 124.104 30.1752L126.161 28.7489C123.8 25.3325 123.44 22.8212 124.128 20.7208C124.853 18.5085 126.834 16.4201 129.938 14.1178L128.441 12.0904Z" fill="#333333"/>
<path d="M142.687 47.2402C151.446 56.5605 156.389 60.3513 166.993 65.9302L168.793 64.5626C158.802 58.3004 148.347 50.9055 139.536 41.77C138.636 41.3142 134.398 40.5024 132.334 39.9466L142.687 47.2402Z" fill="#333333" stroke="#333333" stroke-width="2.51186"/>
</svg>
